Correlações no SIP Dataset
…
## # A tibble: 1 x 6
##   projetos categoprias sub_categorias estimativas tasks prioridades
##      <int>       <int>          <int>       <int> <int>       <int>
## 1       20           3             24       12299 10266          10

Temos 20 projetos, com 12299 estimativas de tempo para tasks. Não há apenas uma estimativa por tarefa, já que há apenas 10266 valores distintos de task_number.

estimativas_raw %>% 
    count(task_number, category, summary, sort = T)

## # A tibble: 10,268 x 4
##    task_number category    summary                                             n
##    <chr>       <chr>       <chr>                                           <int>
##  1 10605       Management  Staff Meeting                                       8
##  2 6889        Management  SiP Staff Meeting                                   8
##  3 10089       Operational Office Move and bits and bobs                       7
##  4 10974       Management  Extended SiP Lunch                                  7
##  5 11056       Management  SiP Company Meeting                                 7
##  6 11270       Management  Staff Meeting                                       7
##  7 13124       Management  Company Meeting - scorecard and discussion          7
##  8 13190       Management  Marketing management meeting                        7
##  9 13253       Management  YYY ZZZ's Marketing presentation and meeting        7
## 10 3812        Development Weekly Developer Meeting 14th September 2005 -~     7
## # ... with 10,258 more rows
…
